<?xml version="1.0" encoding="UTF-8"?>
<svg width="95px" height="80px" viewBox="0 0 95 80" version="1.1" xmlns="http://www.w3.org/2000/svg" xmlns:xlink="http://www.w3.org/1999/xlink">
    <!-- Generator: Sketch 52.6 (67491) - http://www.bohemiancoding.com/sketch -->
    <title>logo-b47</title>
    <desc>Created with Sketch.</desc>
    <defs>
        <linearGradient x1="97.7757434%" y1="50%" x2="0.697705925%" y2="50%" id="linearGradient-1">
            <stop stop-color="#082858" offset="0%"></stop>
            <stop stop-color="#5D40C2" offset="44.9740126%"></stop>
            <stop stop-color="#D051E2" offset="78.9197977%"></stop>
            <stop stop-color="#FF7CCD" offset="100%"></stop>
        </linearGradient>
    </defs>
    <g id="Symbols" stroke="none" stroke-width="1" fill="none" fill-rule="evenodd" opacity="0.704892113">
        <g id="footer" transform="translate(-673.000000, -32.000000)">
            <g id="logo-b47">
                <g transform="translate(673.000000, 32.000000)">
                    <g id="logo-beats4seven-vector" transform="translate(0.000000, 0.526316)">
                        <path d="M21.4753521,39.6480447 C21.4753521,28.1043811 21.4084507,16.5829168 21.5199531,5.03925316 C21.5422535,1.99794178 22.4342723,0.865774772 25.1326291,0.155395472 C27.028169,-0.35518965 29.6150235,1.06556895 30.0610329,2.99691267 C30.2617371,3.84048809 30.3732394,4.70626286 30.3732394,5.61643634 C30.350939,28.3929727 30.3732394,51.169509 30.3286385,73.9460453 C30.3286385,77.6755366 29.1690141,78.3637166 26.4260563,79.1628933 C24.8873239,79.6068803 22.3450704,78.0085269 21.8544601,76.3213761 C21.6091549,75.4334019 21.4753521,74.5454278 21.4753521,73.613055 C21.4753521,62.2691855 21.4753521,50.9475154 21.4753521,39.6480447 Z M73.1901408,39.9144369 C73.1901408,51.4581006 73.2124413,62.9795648 73.1678404,74.5232285 C73.1678404,77.1205528 72.2312207,78.6967069 69.6220657,79.3182887 C67.6373239,79.8066745 65.1173709,78.4081153 64.649061,76.4323728 C64.4483568,75.5665981 64.3814554,74.7008233 64.3814554,73.8128492 C64.3814554,51.0363128 64.3591549,28.2597765 64.4037559,5.48324022 C64.4037559,1.90914437 65.5410798,1.13216701 68.2617371,0.35518965 C69.82277,-0.0887974125 72.4765258,1.55395472 72.9002347,3.26330491 C73.100939,4.08468098 73.2124413,4.90605704 73.2124413,5.77183181 C73.1901408,17.1379006 73.1901408,28.5261688 73.1901408,39.9144369 Z M53.721831,39.8478389 C53.721831,32.3444575 53.6549296,24.8410762 53.7441315,17.3376948 C53.7887324,14.1631873 54.8814554,13.0976183 57.6021127,12.4316378 C59.3638498,12.00985 61.75,13.5194061 62.2629108,15.3175537 C62.5305164,16.2499265 62.6197183,17.1822993 62.6197183,18.1368715 C62.5974178,32.8106439 62.6197183,47.5066157 62.6197183,62.1803881 C62.6197183,65.1995001 61.5046948,66.6646575 58.6502347,67.3972361 C57.0669014,67.7968245 54.4577465,66.131873 54.0340376,64.4447221 C53.8110329,63.6233461 53.7441315,62.80197 53.7441315,61.9361952 C53.721831,54.56601 53.721831,47.1958248 53.721831,39.8478389 Z M10.8826291,39.5814466 C10.8826291,32.0336666 10.8826291,24.5080859 10.8826291,16.9603058 C10.8826291,15.9169362 11.1056338,14.9401647 11.6408451,14.0299912 C12.3321596,12.8978242 14.3392019,11.8544546 15.5657277,12.0320494 C17.6619718,12.3428403 18.9776995,13.4972067 19.4237089,15.2509556 C19.6244131,16.0501323 19.6690141,16.849309 19.6690141,17.6484857 C19.6690141,32.4776536 19.6913146,47.2846222 19.6467136,62.1137901 C19.6467136,64.7111144 18.6877934,66.3538665 16.100939,66.9310497 C14.4953052,67.2862393 11.685446,66.3760659 11.1279343,64.1339312 C10.92723,63.3569538 10.8380282,62.5577771 10.8380282,61.7364011 C10.8826291,54.3884152 10.8826291,46.9738312 10.8826291,39.5814466 Z M41.278169,40.9356072 C41.278169,47.2624228 41.278169,53.5892385 41.278169,59.9160541 C41.278169,60.915025 41.0551643,61.8695972 40.5199531,62.7353719 C39.8286385,63.867539 37.8661972,64.999706 36.6173709,64.7333137 C34.9225352,64.4003234 33.3392019,63.8009409 32.7816901,61.8917965 C32.536385,61.0038224 32.4025822,60.1158483 32.4025822,59.1834754 C32.4248826,46.8184358 32.4248826,34.4755954 32.4248826,22.1105557 C32.4248826,19.3356366 33.6960094,17.7150838 36.3497653,17.0935019 C38.0223005,16.6939136 40.5422535,18.2700676 41.0105634,20.0016172 C41.2112676,20.7785945 41.32277,21.5777712 41.32277,22.3991473 C41.278169,28.5927668 41.278169,34.764187 41.278169,40.9356072 Z M84.1173709,41.2907968 C84.1173709,47.6176125 84.1173709,53.9444281 84.1173709,60.2712438 C84.1173709,61.0926198 83.8720657,61.8473978 83.6044601,62.6021758 C82.8908451,64.6001176 79.8579812,65.5324904 77.8286385,64.5779183 C75.9776995,63.7121435 75.3309859,62.1803881 75.3309859,60.4266392 C75.286385,47.6176125 75.286385,34.8307851 75.3086854,22.0217583 C75.3086854,19.4466333 76.9366197,17.6484857 79.4565728,17.3376948 C81.8650235,17.0491032 84.0950704,19.2468392 84.1173709,21.9551602 C84.1396714,28.415172 84.1173709,34.8529844 84.1173709,41.2907968 Z M9.09859155,39.8256395 C9.09859155,43.3331373 9.07629108,46.8628345 9.12089202,50.3703323 C9.14319249,51.2805057 8.94248826,52.1240812 8.65258216,52.9454572 C8.11737089,54.4772126 6.11032864,55.7647751 4.50469484,55.6537783 C2.6314554,55.5427815 0.958920188,54.2552191 0.490610329,52.5902676 C0.289906103,51.8798883 0.200704225,51.169509 0.200704225,50.414731 C0.223004695,43.1555425 0.200704225,35.9185534 0.223004695,28.6593649 C0.223004695,25.9954425 1.73943662,24.2416936 4.34859155,23.8199059 C5.95422535,23.575713 8.22887324,25.0408703 8.71948357,26.6836225 C8.9870892,27.5271979 9.12089202,28.3707733 9.12089202,29.2809468 C9.07629108,32.7884446 9.09859155,36.3181417 9.09859155,39.8256395 Z M43.0622066,39.7368421 C43.0622066,36.8953249 42.9730047,34.0316084 43.084507,31.1900911 C43.1514085,29.4585416 43.6197183,27.8379888 45.5598592,27.0166128 C48.7042254,25.6846516 51.8485915,27.5271979 51.8931925,30.990297 C51.9823944,36.9175243 51.9600939,42.8225522 51.915493,48.7497795 C51.8931925,51.3471038 49.5516432,53.5226404 47.2546948,53.2562482 C44.7570423,52.9676566 43.084507,51.1473096 43.0622066,48.594384 C43.0399061,45.6640694 43.0622066,42.6893561 43.0622066,39.7368421 Z M85.9014085,40.0698324 C85.9014085,37.1839165 85.8122066,34.2980006 85.9460094,31.434284 C86.0129108,29.7249338 86.5481221,28.1487798 88.3767606,27.3274037 C91.3873239,25.9954425 94.6877934,27.660394 94.7546948,31.2344899 C94.8661972,37.2061158 94.8438967,43.1999412 94.7546948,49.1937665 C94.7323944,50.9031167 94.0187793,52.4348721 92.1678404,53.1452514 C90.3838028,53.8334313 88.7335681,53.5448398 87.350939,52.4126727 C86.3251174,51.5912967 85.9683099,50.2593355 85.9460094,48.9495737 C85.879108,45.9748603 85.9014085,43.0223464 85.9014085,40.0698324 Z" id="Combined-Shape" fill="url(#linearGradient-1)" fill-rule="nonzero"></path>
                        <g id="_x37_" transform="translate(44.861111, 21.052632)" fill="#FFFFFF">
                            <path d="M4.66434921,22.1330788 C4.61971429,22.5748568 2.52187302,21.5587674 2.7004127,19.857922 C2.87895238,18.0245432 5.82485714,16.3899645 15.2205079,15.5284974 C18.7020317,11.9280065 22.6299048,8.30542678 25.6873968,6.16280338 C23.8350476,6.5162258 22.0496508,6.73711481 20.2419365,6.73711481 C12.9887619,6.73711481 11.6720317,3.40169076 11.6720317,3.31333515 C11.6720317,3.22497955 11.7166667,3.22497955 11.7613016,3.22497955 C11.8505714,3.22497955 13.3458413,5.41178075 18.4119048,5.41178075 C23.9912698,5.41178075 37.8280952,1.47995637 37.7388254,0.110444505 C38.4306667,0.110444505 39.1448254,3.40169076 38.8993333,3.40169076 C37.6941905,3.40169076 29.6822222,7.90782656 21.0676825,15.3517862 C23.2101587,15.395964 25.1740952,15.5284974 26.2006984,15.5726752 C32.6727619,15.9702754 36.3105079,17.6711208 36.265873,17.9803654 C36.265873,18.0245432 34.6813333,17.3618762 29.6599048,16.964276 C28.7225714,16.8759204 27.6513333,16.8317426 26.3569206,16.8317426 C24.5045714,16.8317426 22.1166032,16.964276 18.858254,17.3176984 C12.1630159,23.7455686 5.49009524,31.9405509 3.25834921,40.2680665 C2.96822222,41.3283338 2.87895238,42.2339787 3.9948254,42.4106899 C1.76307937,43.1175348 -0.245492063,41.3946005 0.312444444,38.6555768 C0.870380952,35.4085083 3.01285714,30.9907281 6.49438095,25.9102809 C8.30209524,23.3258795 10.3106667,20.9181893 12.7432698,18.1128988 C7.3647619,19.1068994 4.77593651,21.1611672 4.66434921,22.1330788 Z" id="Path"></path>
                        </g>
                        <g id="B" transform="translate(8.972222, 18.947368)" fill="#FFFFFF">
                            <path d="M12.6621372,8.9478535 C11.8165112,8.39000728 11.0376451,8.12224109 10.5258188,8.39000728 C9.74695274,8.9924812 11.3714449,6.15862236 13.9973362,5.93548387 C14.3756426,5.89085617 15.0654954,6.11399466 15.8888682,6.67184089 C23.9000622,12.4065001 35.9613599,29.2311424 36.0503731,33.0691244 C36.0948798,34.2740723 35.4050269,34.6534077 34.6039075,34.6534077 C33.6247616,34.6534077 31.4439366,33.2253214 30.5760572,32.3773951 C31.0878835,32.6005336 32.9349088,33.2476352 33.6470149,33.2030075 C33.8250415,33.2030075 34.0253213,33.1137521 34.0253213,32.979869 C34.0253213,31.350958 27.3048197,23.9427601 24.656675,20.9303905 C21.6969838,20.2386612 18.9153192,19.814698 16.1336546,19.814698 C15.5328151,19.814698 14.9764822,19.814698 14.3756426,19.8593257 C10.9931385,20.0824642 5.51882255,21.1089013 5.74135572,24.2105263 C6.43120854,32.2658259 36.2951596,44.962406 51.6944548,44.962406 C52.2952944,44.962406 52.8961339,44.962406 53.4524668,44.9177783 C54.6986526,44.8285229 58.1256633,44.5384429 58.0366501,42.8425903 C57.7028503,37.8889158 45.6192993,30.9493088 40.7013163,28.6732961 C40.3675166,28.539413 40.32301,28.539413 40.3675166,28.4947854 C43.7945274,28.9633762 59.2383292,36.2823187 59.6166356,42.753335 C59.8391687,46.2342954 57.0129975,47.6623818 53.2744403,48.1309726 C52.4955742,48.220228 51.6054415,48.2648557 50.6708022,48.2648557 C36.4286795,48.2648557 3.38250415,38.0674266 3.00419776,25.8171235 C2.82617123,20.9080766 9.59117952,19.1452826 13.5745232,18.8328887 C14.264376,18.788261 14.9097222,18.7436333 15.1545087,18.788261 C11.8610178,18.051904 0.600839552,14.7048266 0.222533167,8.27843803 C-0.111266584,2.85617269 6.47571517,0.535532379 11.4382048,0.223138491 C12.3283375,0.178510793 13.1517102,0.133883095 13.9973362,0.133883095 C28.1949523,0.133883095 38.5204913,7.58670871 39.1213308,12.6296386 C39.3883706,14.9056512 38.008665,16.2891099 35.7833333,16.2891099 C35.2270004,16.2891099 34.7596808,16.1105991 34.7596808,16.0659714 C36.0948798,15.7982052 36.4286795,14.7717681 36.3396663,13.7899588 C36.1171331,9.14867815 20.9403711,1.09337861 10.6593387,1.74048023 C8.21147388,1.87436333 1.42421227,3.21319428 2.02505182,6.60489935 C2.71490464,10.2643706 14.8652156,16.1329129 22.6093698,18.6990056 C19.2936256,15.0172205 16.1336546,11.4470046 12.6621372,8.9478535 Z" id="Path"></path>
                        </g>
                    </g>
                </g>
            </g>
        </g>
    </g>
</svg>