{
  "hosting": {
    "public": "build",
    "ignore": [
      "firebase.json",
      "**/.*",
      "**/node_modules/**"
    ],
    "rewrites": [
      {
        "source": "**",
        "destination": "/index.html"
      }
    ],
    "redirects": [
      {
        "source": "/?s2member_paypal_notify=1",
        "destination": "https://api.discocanarias.com/mepr/notify/pwuq73-1c7/ipn",
        "type" : 307
      }
    ]
  }
}
