<?xml version="1.0" encoding="utf-8"?>
<!-- Generator: Adobe Illustrator 18.0.0, SVG Export Plug-In . SVG Version: 6.00 Build 0)  -->
<!DOCTYPE svg PUBLIC "-//W3C//DTD SVG 1.1//EN" "http://www.w3.org/Graphics/SVG/1.1/DTD/svg11.dtd">
<svg version="1.1" id="Capa_1" xmlns="http://www.w3.org/2000/svg" xmlns:xlink="http://www.w3.org/1999/xlink" x="0px" y="0px"
	 viewBox="0 0 400 400" enable-background="new 0 0 400 400" xml:space="preserve">
<path fill="#FFFFFF" d="M4.4,235.5c0-0.1,0-0.1,0-0.2"/>
<path fill="#FFFFFF" d="M7.1,255.7c0-64.6,0-129.3,0-193.9c129.3,0,258.5,0,387.8,0c0,64.6,0,129.2,0,193.9
	C265.6,255.7,136.4,255.7,7.1,255.7z M104.1,82.8c-0.3,0.3-0.5,0.5-0.6,0.7c-14.6,18.3-28.5,37.1-41.4,56.6
	c-7.3,11-14.2,22.3-20.5,33.9c-5,9.2-6.3,18.9-4.5,29.1c2.9,16.7,16.8,29.6,33.8,31.4c11.8,1.2,22.1-2.3,30.8-10.3
	c0.9-0.8,1.6-1.6,2.4-2.4c0.9,0.8,1.7,1.6,2.5,2.4c11.6,11.1,29.4,14,43.7,6.6c13.4-6.9,20.7-18.1,21.5-33.3c0.5-8.1-1.1-15.8-5-23
	c-6.5-12.2-13.8-24-21.5-35.6c-10.7-16-22-31.6-33.8-46.8C109.1,89.1,106.6,86,104.1,82.8z M227.2,103c0,37.1,0,74,0,111
	c0.4,0,0.8,0,1.2,0c7.3,0,14.6,0,22,0c1.6,0,3.3-0.1,4.9-0.3c5.3-0.8,9.6-3.3,12.5-7.9c2.3-3.7,3.2-7.7,3.2-12
	c0.1-7.9,0-15.8,0-23.7c0-7-3.1-11.9-9.7-14.5c-0.5-0.2-1.1-0.4-1.7-0.7c1.1-0.4,2-0.8,2.9-1.2c3.7-1.6,6.4-4.2,7.2-8.2
	c0.4-1.9,0.6-3.8,0.6-5.8c0.1-4.4,0.1-8.8,0-13.2c-0.1-2.9-0.4-5.8-1-8.6c-1.4-6.4-4.9-11.1-11.3-13.3c-2.9-1-6-1.5-9.1-1.5
	c-6.9-0.1-13.9,0-20.8,0C227.7,103,227.5,103,227.2,103z M318.2,158.6c0-10.6,0-21.1,0-31.7c0-3.5-0.5-7-1.5-10.3
	c-1.7-5.3-4.6-9.6-9.6-12.3c-4-2.1-8.2-2.7-12.7-2.3c-7.9,0.7-13.4,4.7-16.7,11.9c-2.3,5-2.9,10.3-2.9,15.7c0,19.4,0,38.9,0.1,58.3
	c0,4.7,0.7,9.4,2.4,13.9c2,5.3,5.4,9.5,10.8,11.6c3.6,1.4,7.4,1.7,11.2,1.2c6.4-0.7,11.5-3.5,14.9-9.1c2.9-4.7,3.9-9.8,3.9-15.2
	C318.3,179.7,318.2,169.2,318.2,158.6z M336.8,101.9c-5.8,37.3-11.5,74.6-17.3,111.9c0.2,0.1,0.2,0.1,0.3,0.1c5,0,10.1,0,15.1,0
	c0.2,0,0.6-0.4,0.6-0.6c0.3-2.4,0.5-4.7,0.8-7.1c0.3-2.3,0.5-4.6,0.8-7c4.5,0,8.9,0,13.3,0c0,0.1,0.1,0.3,0.1,0.4
	c0.4,4.4,0.9,8.8,1.3,13.3c0.1,0.8,0.3,1.1,1.1,1.1c4.6,0,9.2,0,13.8,0c0.3,0,0.6,0,1,0c-5.6-37.4-11.3-74.7-16.9-112
	C346.2,101.9,341.6,101.9,336.8,101.9z"/>
<path fill="#FFFFFF" d="M7.1,279.1c1.7,0,3.4,0,5.2,0c0,5.7,0,11.2,0,16.8c0.2-0.1,0.3-0.1,0.3-0.1c2.5-3.4,6-4.2,9.9-4
	c5.3,0.3,8.7,3.1,10.4,8c1.8,5.2,1.5,10.4-0.9,15.3c-2.6,5.3-6.9,6.7-12,6.2c-3.1-0.3-5.7-1.7-7.5-4.3c0-0.1-0.1-0.1-0.3-0.2
	c0,1.3,0,2.6,0,4.1c-1.7,0-3.4,0-5,0C7.1,306.9,7.1,293,7.1,279.1z M28.4,306.4c0-2.2-0.4-4.3-1.4-6.4c-2.6-5.3-9.4-4.9-12.3-1.2
	c-1.5,2-2.2,4.2-2.4,6.6c-0.2,3.4,0.4,6.5,2.7,9.2c2.6,3.1,8.4,3.8,11.2-0.6C27.8,311.7,28.4,309.2,28.4,306.4z"/>
<path fill="#FFFFFF" d="M110.7,320.7c-1.8,0-3.5,0-5.2,0c0-9.4,0-18.7,0-28.1c1.6,0,3.2,0,4.9,0c0,1.2,0,2.5,0,3.7
	c2.2-3.1,5.3-4.4,8.9-4.5c3.8,0,6.5,1.6,8.1,5.3c0.2-0.3,0.4-0.6,0.6-0.8c3.5-5.3,10.4-5.4,14.3-2.9c2.2,1.5,3.1,3.7,3.5,6.3
	c0.2,1,0.2,2,0.2,3c0,5.6,0,11.2,0,16.9c0,0.3,0,0.7,0,1.1c-1.7,0-3.4,0-5.2,0c0-0.4,0-0.7,0-1.1c0-5.2,0-10.4,0-15.7
	c0-1.2-0.1-2.4-0.4-3.6c-0.8-4-4.5-5.6-8-3.4c-1.9,1.1-2.9,2.9-3.4,5c-0.4,1.6-0.6,3.3-0.6,5c-0.1,4.2,0,8.4,0,12.6
	c0,0.3,0,0.7,0,1.1c-1.7,0-3.4,0-5.3,0c0-0.3,0-0.7,0-1c0-5.3,0-10.6,0-15.9c0-1.3-0.2-2.5-0.5-3.8c-0.8-3.2-3.2-4.5-6.4-3.6
	c-2.1,0.6-3.4,2.1-4.3,4c-1,2.2-1.2,4.5-1.2,6.9c0,4.1,0,8.2,0,12.3C110.7,319.9,110.7,320.2,110.7,320.7z"/>
<path fill="#FFFFFF" d="M359.3,296.3c2.3-3.1,5.3-4.5,9-4.5c3.8,0,6.5,1.7,8,5c1.2-1.1,2.2-2.4,3.6-3.3c3.2-2.2,6.7-2.2,10.2-0.7
	c2.9,1.2,4.2,3.8,4.6,6.8c0.1,0.9,0.2,1.8,0.2,2.8c0,5.7,0,11.5,0,17.2c0,0.3,0,0.7,0,1.1c-1.7,0-3.4,0-5.2,0c0-0.3,0-0.7,0-1.1
	c0-5.4,0-10.8,0-16.1c0-1.1-0.1-2.2-0.4-3.2c-0.9-4-4.6-5.5-8.1-3.3c-2.1,1.4-3.1,3.5-3.6,5.8c-0.2,1.2-0.4,2.4-0.4,3.7
	c0,4.4,0,8.7,0,13.1c0,0.3,0,0.7,0,1.1c-1.7,0-3.4,0-5.2,0c0-0.4,0-0.7,0-1.1c0-5,0-9.9,0-14.9c0-1.4-0.1-2.8-0.4-4.1
	c-0.3-1.9-1.1-3.6-3.1-4.2c-2.2-0.6-4.2-0.2-5.8,1.4c-2.2,2-2.9,4.7-3,7.5c-0.1,4.8,0,9.5-0.1,14.3c0,0.4,0,0.7,0,1.2
	c-1.7,0-3.4,0-5.2,0c0-9.4,0-18.7,0-28.2c1.6,0,3.2,0,4.8,0C359.3,293.8,359.3,295,359.3,296.3z"/>
<path fill="#FFFFFF" d="M91.7,303.2c-0.3-1.5-0.5-2.8-1-4.1c-0.7-2-2.5-2.8-4.4-3c-3.5-0.4-6.7,0.3-9.5,2.4
	c-0.1,0.1-0.2,0.1-0.4,0.3c-0.1-1.5-0.2-2.8-0.2-4.2c0-0.2,0.2-0.4,0.4-0.5c4.4-2.4,9-3.1,13.8-1.7c3.8,1.1,5.5,3.9,6.2,7.6
	c0.2,1.2,0.3,2.5,0.3,3.8c0,5.6,0,11.2,0,16.8c-1.5,0-3.1,0-4.7,0c0-1.1,0-2.2,0-3.5c-0.3,0.3-0.5,0.5-0.7,0.7
	c-2,2.4-4.7,3.5-7.7,3.5c-1.6,0-3.3-0.1-4.8-0.6c-4-1.1-6.2-4.4-6-8.6c0.2-3.6,2.2-5.8,5.2-7.3c2.4-1.1,4.9-1.6,7.5-1.6
	C87.5,303.2,89.5,303.2,91.7,303.2z M91.5,307.2c-1.6,0-3.1,0-4.6,0c-2.1,0.1-4.1,0.3-6,1.4c-1.6,0.9-2.4,2.2-2.4,4.1
	c0,1.8,1,3,2.5,3.8c2.4,1.3,6.2,0.7,8.3-1.2C91.6,313,91.6,310.2,91.5,307.2z"/>
<path fill="#FFFFFF" d="M266.7,303.2c-0.1-0.8-0.1-1.4-0.2-2c-0.7-4.1-3.1-5.2-7-5.2c-2.9,0-5.5,0.9-8,2.9c-0.1-1.5-0.2-2.9-0.3-4.2
	c0-0.2,0.3-0.4,0.4-0.5c4.3-2.4,8.8-3,13.5-1.8c3.8,1,5.7,3.7,6.4,7.4c0.2,1.3,0.3,2.6,0.3,4c0,4.9,0,9.8,0.1,14.6
	c0,0.7,0.1,1.5,0.1,2.3c-1.6,0-3.1,0-4.8,0c0-1.1,0-2.2,0-3.3c-0.1-0.1-0.2-0.1-0.4-0.2c0,0.1,0,0.3-0.1,0.4
	c-2.7,3.5-6.4,4.2-10.5,3.7c-1.4-0.2-2.8-0.6-4.1-1.2c-5.1-2.3-5.8-10.9-0.7-14.2c2.8-1.8,5.9-2.5,9.2-2.6
	C262.7,303.2,264.7,303.2,266.7,303.2z M266.7,307.4c-2.3,0-4.5-0.1-6.7,0c-1.3,0.1-2.5,0.5-3.7,1c-1.9,0.8-2.8,2.4-2.6,4.5
	c0.1,2,1.3,3.2,3.1,3.8c2.8,0.9,5.5,0.5,7.8-1.5C266.9,313.1,266.8,310.2,266.7,307.4z"/>
<path fill="#FFFFFF" d="M53.5,291.8c8.1,0,14,5.7,14.3,13.8c0.2,5.7-1.7,10.5-6.7,13.6c-8.4,5.3-20.5,0.8-21.9-10.5
	c-0.4-3.5,0-6.9,1.8-10C43.5,294.2,47.9,291.8,53.5,291.8z M62.2,306.6c0-3-0.9-5.6-2.6-7.7c-3.1-3.7-8.7-3.9-12-0.3
	c-3.6,3.9-4,11.1-0.7,15.4c3.4,4.5,10.2,4.3,13.4-0.4C61.7,311.5,62.2,309.1,62.2,306.6z"/>
<path fill="#FFFFFF" d="M331.9,291.8c9.5,0,15.4,5.9,15.6,14.1c0.1,5.5-1.7,10-6.2,13.1c-8,5.6-20.9,1.7-22.4-10.3
	c-0.4-3.1-0.1-6.1,1.3-8.9C322.8,294.3,327.3,291.8,331.9,291.8z M341.9,306.5c0-2.8-0.8-5.5-2.7-7.7c-3.1-3.6-8.4-3.8-11.7-0.5
	c-3.9,3.9-4.3,11.3-0.8,15.7c3.4,4.3,10.1,4.1,13.2-0.4C341.4,311.5,341.9,309.2,341.9,306.5z"/>
<path fill="#FFFFFF" d="M179.6,320.7c-1.6,0-3.3,0-5,0c0-1.4,0-2.7,0-4.3c-0.6,0.7-1,1.3-1.4,1.8c-3.8,4.2-11.9,4.4-15.7,0.4
	c-1.7-1.8-2.4-3.9-2.6-6.3c-0.2-2-0.2-4-0.2-6c0-4.5,0-9,0-13.5c0-0.1,0-0.1,0.1-0.2c1.7,0,3.3,0,5.2,0c0,0.3,0,0.6,0,1
	c0,4.6,0,9.3,0,13.9c0,1.6,0.2,3.1,0.4,4.7c0.8,5,4.7,5.6,8.1,4.8c2.4-0.6,3.8-2.2,4.8-4.4c0.9-2.1,1.2-4.4,1.2-6.7c0-4,0-8,0-12
	c0-0.4,0-0.7,0-1.2c1.8,0,3.4,0,5.2,0C179.6,301.9,179.6,311.2,179.6,320.7z"/>
<path fill="#FFFFFF" d="M186.4,315.1c2,1.2,4,2,6.2,2c1.4,0,2.6-0.2,3.8-0.9c1.9-1.2,2.3-3.6,0.8-5.2c-0.7-0.7-1.5-1.2-2.3-1.7
	c-1.6-0.9-3.3-1.8-4.9-2.6c-2.7-1.4-4.2-3.5-4.1-6.7c0.1-3.1,1.5-5.5,4.3-7c2.5-1.3,5.3-1.4,8-1c1.4,0.2,2.7,0.6,4.1,0.9
	c-0.1,1.6-0.3,3-0.4,4.4c-1.7-0.4-3.3-1-4.9-1.1c-1.2-0.1-2.5,0.1-3.7,0.6c-2.1,0.9-2.5,3.3-0.9,5c0.6,0.6,1.4,1.2,2.1,1.6
	c1.7,0.9,3.4,1.8,5.2,2.7c2.7,1.4,4.3,4.1,4,7.1c-0.4,4.4-3.2,7.5-7.6,8.1c-3.1,0.4-6.2,0.2-9.2-1c-0.6-0.2-0.9-0.5-0.8-1.2
	C186.3,317.8,186.3,316.5,186.4,315.1z"/>
<path fill="#FFFFFF" d="M314.5,292.7c-0.2,1.7-0.3,3.1-0.5,4.5c-0.9-0.3-1.8-0.6-2.6-0.8c-4.9-1.2-8.7,0.4-10.8,4.6
	c-1.3,2.5-1.5,5.3-1,8c0.3,2.1,1.2,3.9,2.6,5.4c2.7,2.9,7.5,3.5,11.3,1.5c0.2-0.1,0.5-0.2,0.9-0.4c0.1,1.5,0.2,2.9,0.3,4.3
	c0,0.2-0.3,0.5-0.5,0.6c-10.5,3.5-19.3-2.7-20.2-12c-0.4-3.8,0.2-7.4,2.4-10.6c3.1-4.6,7.6-6.3,13-6
	C311,291.9,312.7,292.4,314.5,292.7z"/>
<path fill="#FFFFFF" d="M243.4,297c-2-0.3-3.9-0.9-5.8-0.9c-3.1-0.1-5.5,1.4-7.1,4c-2.4,4-2.5,8.2-0.4,12.4c2.3,4.5,7.9,6,12.7,3.6
	c0.3-0.1,0.5-0.3,0.9-0.5c0.1,1.6,0.3,3.1,0.4,4.6c-1.6,0.8-3.2,1-4.9,1.2c-3.9,0.3-7.6-0.5-10.7-3.1c-4.3-3.6-5.8-8.3-5.2-13.7
	c0.5-4.7,2.6-8.4,6.7-10.8c4.2-2.5,8.8-2.4,13.3-1c0.2,0.1,0.5,0.4,0.5,0.5C243.6,294.5,243.5,295.8,243.4,297z"/>
<path fill="#FFFFFF" d="M215.8,320.7c-1.7,0-3.4,0-5.1,0c0-9.4,0-18.7,0-28.1c1.7,0,3.4,0,5.1,0
	C215.8,301.9,215.8,311.2,215.8,320.7z"/>
<path fill="#FFFFFF" d="M287.1,314.5c0,2,0,4,0,6.1c-2,0-4,0-6.1,0c0-2,0-4,0-6.1C283,314.5,285,314.5,287.1,314.5z"/>
<path fill="#FFFFFF" d="M216.2,286.1c-2,0-3.9,0-5.8,0c0-1.9,0-3.8,0-5.7c1.9,0,3.9,0,5.8,0C216.2,282.3,216.2,284.2,216.2,286.1z"
	/>
<path fill="#FFFFFF" d="M110.4,206.9c12.1-3.4,19.1-15.8,16.4-27.7c-2.5-10.8-12.2-18.5-23.1-18.2c-11.2,0.3-20.6,8.2-22.6,19.3
	c-2.1,11.6,4.9,23.2,16.8,26.7c-1.1,1.6-1.9,3.3-3.1,4.7c-6.6,7.9-15.1,11.2-25.2,9c-10-2.2-16.5-8.6-18.9-18.5
	c-1.8-7.4-0.9-14.6,2.7-21.5c6.3-11.9,13.5-23.3,20.9-34.5c0.2-0.3,0.7-0.5,1.1-0.5c5.6,0,11.2,0,16.8,0c13.4,0,26.8,0,40.2,0
	c0.7,0,1.2,0.2,1.6,0.8c7.4,11.2,14.6,22.5,20.8,34.5c4.5,8.8,5,17.9,0.5,26.9c-7.4,14.7-27.4,18-39.4,6.7
	C113.7,212.3,111.8,209.8,110.4,206.9z"/>
<path fill="#FFFFFF" d="M83.9,132c6.8-9.2,13.4-18.2,20.2-27.5c6.8,9.2,13.4,18.3,20.2,27.5C110.7,132,97.5,132,83.9,132z"/>
<path fill="#FFFFFF" d="M113.9,184.4c0,5.3-4.5,9.8-9.8,9.8c-5.3,0-9.8-4.5-9.8-9.8c0-5.4,4.5-9.8,10-9.8
	C109.5,174.6,113.9,179.1,113.9,184.4z"/>
<path fill="#FFFFFF" d="M243.2,200.5c0-13,0-26,0-39.2c2.2,0.1,4.3,0,6.3,0.5c3.1,0.8,4.4,3.3,4.8,6.3c0.1,0.8,0.2,1.7,0.2,2.6
	c0,7.4,0,14.8,0,22.1c0,1.2-0.2,2.5-0.5,3.7c-0.6,2.3-2.3,3.7-4.6,3.9C247.4,200.6,245.3,200.5,243.2,200.5z"/>
<path fill="#FFFFFF" d="M243.1,147.9c0-0.3,0-0.6,0-1c0-9.7,0-19.4,0-29.1c0-0.9,0.3-1.2,1.1-1.1c1.5,0.1,3,0,4.5,0.3
	c3.1,0.6,5.3,3.2,5.6,6.4c0.1,0.9,0.1,1.8,0.1,2.7c0,4.7,0,9.5,0,14.2c0,1.1-0.2,2.2-0.5,3.3c-0.7,2.5-2.4,4.1-5,4.4
	C247.1,148.1,245.2,147.9,243.1,147.9z"/>
<path fill="#FFFFFF" d="M302.2,157.9c0,11.7,0,23.3,0,35c0,1.4-0.2,2.8-0.5,4.1c-0.9,3.3-3.6,4.7-6.9,3.7c-1.7-0.5-2.7-1.8-3-3.4
	c-0.4-2.1-0.7-4.3-0.7-6.4c-0.1-22,0-43.9,0-65.9c0-2,0.2-4,0.9-5.9c0.9-2.2,2.3-3.3,4.3-3.4c2.6-0.1,4.5,1,5.3,3.2
	c0.4,1.2,0.7,2.5,0.7,3.8C302.2,134.5,302.2,146.2,302.2,157.9z"/>
<path fill="#FFFFFF" d="M343.9,140c1.7,15.3,3.3,30.5,5,45.8c-3.5,0-6.9,0-10.4,0c1.7-15.3,3.4-30.6,5.1-45.8
	C343.7,140,343.8,140,343.9,140z"/>
</svg>
