<?xml version="1.0" encoding="utf-8"?>
<!-- Generator: Adobe Illustrator 18.0.0, SVG Export Plug-In . SVG Version: 6.00 Build 0)  -->
<!DOCTYPE svg PUBLIC "-//W3C//DTD SVG 1.1//EN" "http://www.w3.org/Graphics/SVG/1.1/DTD/svg11.dtd">
<svg version="1.1" id="Capa_1" xmlns="http://www.w3.org/2000/svg" xmlns:xlink="http://www.w3.org/1999/xlink" x="0px" y="0px"
	 viewBox="0 0 400 400" enable-background="new 0 0 400 400" xml:space="preserve">
<path fill="#FFFFFF" d="M305.2,216.9c1.2-0.8,2.7-0.7,4.1-0.7h7.6H367c6.9,0,16.2,0.4,21.4-5.2c3.6-3.9,4.3-9.5,4.6-14.5
	c0.2-5.3,0.3-10.3-0.3-15.5c-1.2-10.1-4.1-20.3-9.6-29c-10.7-16.8-31.6-27.4-51.6-24.7c-4.2,0.5-8.3,0.8-12.4,1.8
	c-8.8,2.1-17.6,6.8-24.2,13c-19.9,18.5-24.6,48.7-22.8,74.6c0.5,7.1,1.3,14.2,3,21.1c2.8,11.1,7.7,21.9,15.4,30.4
	c7.3,8,17.2,14,27.6,17c6.1,1.7,12.1,2,18.3,2.8c10.8,1.4,23-0.8,33.2-4.3c8.3-2.9,16.8-8.6,19.7-17.3c1.4-4.3,1.2-10.5-2.8-13.3
	c-2.9-2-6.7-1.1-9.7,0.1c-5.2,2-10.4,4.2-15.9,5.5c-18.7,4.3-42.5,0.3-52.3-18.1c-1.4-2.7-2.7-5.6-3.4-8.6
	c-0.8-3.4-1.3-6.9-1.3-10.4C303.7,219.7,303.7,217.9,305.2,216.9z M305.2,176.5c2.2-10.6,8.2-20.2,18.6-24.4c2.4-1,5-1.4,7.6-1.7
	c7.6-1,16.7,1.6,22.1,7.1c3.6,3.8,5.7,8.5,7.2,13.4c1.1,3.5,1.4,7.1,1.5,10.7c0.1,1.4,0.4,2.8,0.3,4.1c-0.2,2.1-0.7,4.2-3.1,4.7
	c-4.1,0.8-9,0.1-13.1,0.1h-27H310c-1.5,0-3.2,0.1-4.5-0.9c-1.3-1-1.4-2.4-1.4-4C304.1,182.7,304.6,179.5,305.2,176.5z"/>
<path fill="#FFFFFF" d="M268.1,129.9c-2.5-2.1-5.5-2.6-8.6-2.9c-5.8-0.7-11.8,0.1-15.7,4.8c-4.4,5.4-6.3,12.9-8.5,19.4
	c-3,9-6.6,17.9-9.4,27c-1.6,4.9-3.2,9.7-5,14.5c-0.7,1.9-1.8,4.3-4.3,3.6c-2.1-0.6-2.8-2.9-3.3-4.7c-1.4-4.1-2.9-8.3-4.4-12.4
	c-3.3-9.3-6.6-18.6-9.7-28c-2.1-6.2-3.9-13.3-7.8-18.7c-3.5-4.8-9.5-6.5-15.3-5.7c-5.7,0.8-11.5,2.2-12.6,8.8
	c-0.2,1-0.2,2.1-0.1,3.1c0.6,4.4,2.7,8.7,4.2,12.8c2.3,6.2,4.6,12.4,6.9,18.7c7.5,20.1,15.3,40.2,22.4,60.5c2.1,6,4.5,13.9,9.9,17.7
	c3.5,2.5,8.3,3,12.4,2.6c2.3-0.2,4.5-0.4,6.6-1.5c7.5-3.8,9.6-13.4,12.4-20.6c8.6-22.7,17-45.6,25.4-68.4c1.6-4.3,3.1-8.6,4.7-12.8
	c1-2.6,2.4-5.5,2.7-8.3C271.6,135.9,271,132.3,268.1,129.9z"/>
<path fill="#FFFFFF" d="M153.1,225.2c-7.8,0.9-16.3,1.7-21.5-5.5c-0.9-1.3-1.6-2.7-2.1-4.1c-2.3-6.7-2.3-13.7-2.3-20.7v-20.4v-9.7
	c0-1.7-0.1-3.7,0.9-5.2c1.3-1.9,3.5-2.1,5.6-2.1c3.5,0,7.3,0.4,10.7-0.2c9.9-1.8,10.9-16,7.4-23.6c-3-6.5-9.7-5.9-15.7-5.9
	c-2.7,0-6.3,0.5-8-2.1c-1.4-2.1-0.9-5.2-0.9-7.6v-10.7c0-5.5-0.1-11-5.9-13.7c-2-0.9-4.1-1.2-6.2-1.5c-2.5-0.3-5.1-0.6-7.6-0.2
	c-4.2,0.6-8.5,1.7-10.7,5.7c-2.3,4.1-1.3,9.7-1.3,14.2v29.7V165v27.6c0,9.9,0,19.4,2.4,29c2.9,11.3,8.9,22.3,20,27.3
	c5.4,2.5,10.7,3.3,16.6,3.8c5.8,0.6,12,0,17.6-1.4c7.9-2,14-6.7,15.5-14.9c0.6-3,0.4-6.7-1.4-9.3
	C163.4,223.1,157.2,224.7,153.1,225.2z"/>
<path fill="#FFFFFF" d="M72.6,127c-6.4,0-13.2,1.5-19,4.4c-2.5,1.2-4.9,2.8-6.9,4.6c-1,0.9-2.3,2.6-3.8,2.5
	c-1.1-0.1-1.7-1.3-2.1-2.2c-0.8-2.1-1.4-4.4-3-6.2c-3-3.4-9.4-3.6-13.6-3c-3.3,0.4-6.3,1.1-8.6,3.7c-2.6,2.9-2.5,6.7-2.5,10.4v16.6
	V220v15.9c0,3.3-0.2,6.7,1.5,9.7c3.8,6.2,13.3,5.9,19.5,5.1c1.5-0.2,3.1-0.5,4.5-1.1c8.1-3.4,6.2-13.1,6.2-20.2v-33.9
	c0-7.9-0.4-16.2,3.2-23.5c3.7-7.7,10.8-11.2,18.9-12.6c5-0.9,10.1,0.9,13.4-4.3c1.9-3.1,2.2-6.9,2.7-10.4c0.6-4.4,1.1-11.3-2-14.8
	C78.9,127.4,75.6,127,72.6,127z"/>
</svg>
