<?xml version="1.0" encoding="utf-8"?>
<!-- Generator: Adobe Illustrator 18.0.0, SVG Export Plug-In . SVG Version: 6.00 Build 0)  -->
<!DOCTYPE svg PUBLIC "-//W3C//DTD SVG 1.1//EN" "http://www.w3.org/Graphics/SVG/1.1/DTD/svg11.dtd">
<svg version="1.1" id="Capa_1" xmlns="http://www.w3.org/2000/svg" xmlns:xlink="http://www.w3.org/1999/xlink" x="0px" y="0px"
	 viewBox="0 0 400 400" enable-background="new 0 0 400 400" xml:space="preserve">
<path fill="#FFFFFF" d="M202.4,102.2c1.9,0.3,3.7,0.5,5.6,0.8c10.3,1.7,19.2,6.2,26.8,13.4c5.8,5.5,10.2,12.1,13.2,19.6
	c0.1,0.2,0.1,0.3,0.2,0.5c-1.3-2.3-2.5-4.6-4-6.8c-7.8-11.5-18.5-18.7-32-22.1c-4.1-1-8.2-1.3-12.2,0.2c-1.9,0.7-3.6,1.6-5,3.4
	c0.8,0.2,1.4,0.5,2.1,0.6c0.6,0.2,1.2,0.2,1.8,0.3c0.8,0.1,1.5,0.5,1.9,1.3c0.1,0.3,0.4,0.5,0.7,0.7c0.3,0.1,0.7,0.3,0.9,0.2
	c0.2-0.1,0.3-0.5,0.4-0.8c0.1-0.8-0.1-1.7,1.4-1.7c-0.6-0.4-1.1-0.6-1.4-1c-0.2-0.4-0.1-0.9-0.1-1.3c1.9-0.1,3.3,0.5,4.6,1.6
	c0.2,0.2,0.9,0.2,1.1,0c0.5-0.5,0.9-0.2,1.4,0.1c1.5,1,3.1,2,4.9,3.2c-0.6,0.3-1,0.6-1.5,0.6c-0.8,0-1.6-0.2-2.4-0.3
	c-0.5-0.1-1.2-0.3-1.3,0.4c-0.1,0.4,0.3,0.9,0.6,1.2c0.4,0.4,0.9,0.6,1.4,0.8c0,0.1,0,0.2,0,0.3c-1,0.3-1.9,0.5-3,0.8
	c-0.1,0.8-0.6,1.5-1.5,2c-0.4,0.2-0.8,0.8-0.9,1.3c-0.8,2.2-2.1,3.9-4.3,4.9c-1.1,0.5-1.2,1.1-0.8,2.3c0.2,0.6,0.6,1.2,0.7,1.8
	c0.2,0.8,0.2,1.6,0.3,2.6c-1.1-0.3-1.5-1-1.8-1.8c-0.2-0.6-0.4-1.2-0.6-1.8c-0.2-0.7-0.7-0.9-1.4-0.7c-0.9,0.2-1.8,0.1-2.7,0.1
	c-0.6,0-1.3,0-1.8,0.3c-0.6,0.4-1.2,0.4-1.8,0.2c-2.2-0.4-3.8,0.4-4.8,2.4c-0.4,0.8-0.7,1.6-0.9,2.4c-0.6,2.1,0.6,3.5,1.7,5
	c0.1,0.2,0.5,0.2,0.7,0.2c0.5,0,1.1-0.1,1.6-0.1c1.3-0.1,2.1-0.7,2.5-1.9c0.3-0.8,0.7-1.5,1.8-0.9c0.3,0.2,0.8,0.1,1.1,0.1
	c-0.4,1.2-0.7,2.4-1.2,3.5c-0.1,0.2-0.5,0.4-0.7,0.5c-3.3,0-6.5,0-9.8,0c-0.4,0-0.8-0.3-1.2-0.5c-0.8-0.5-1.5-1-2.4-1.5
	c0.3-0.5-1.3-1.3,0.1-1.9c-1.6-2.9-3.4-5.6-3.7-9c-0.1,0-0.2,0-0.3-0.1c-0.1,0.3-0.4,0.7-0.3,1c0.2,1,0.4,1.9,0.7,2.9
	c0.3,1.1,0.7,2.3,0.1,3.7c-0.2-0.5-0.4-0.8-0.5-1.1c-0.5-1-1-1.9-1.4-2.9c-0.1-0.2-0.1-0.5-0.1-0.7c0.3-1.9-0.1-3.7-0.8-5.4
	c-0.1-0.3-0.2-0.8-0.1-1.1c0.5-2,1.3-3.8,2.7-5.4c0.8-0.9,1.4-1.9,1.6-3.2c0.3-1.6,1-3.1,2.5-4.1c0.1-0.1,0.3-0.2,0.3-0.3
	c0.4-0.7,0.8-1.4,1.3-2.2c-14.6,4.9-25.4,13.9-32.3,27.6c0.8-1.8,1.6-3.6,2.4-5.3c4.3-8.7,10.3-15.9,18.6-21
	c6-3.7,12.5-5.9,19.4-6.9c1.6-0.2,3.3-0.4,4.9-0.6C197.6,102.2,200,102.2,202.4,102.2z"/>
<path fill="#FFFFFF" d="M4.4,235.3c1.8,0,3.6,0,5.6,0c-1.1,1-0.8,2.2-0.8,3.3c0,1.7,0,3.4,0,5.1c0,1.6,1,2.4,2.8,2.4
	c1.7,0,2.6-0.8,2.6-2.4c0-2.2,0-4.5,0-6.7c0-0.5-0.3-1-0.5-1.5c1.7,0,3.4,0,4.9,0c-0.1,0.9-0.3,1.8-0.3,2.7c-0.1,1.9,0,3.9,0,5.8
	c-0.1,2.8-1.2,4.3-3.9,4.7c-1.9,0.3-3.8,0.2-5.7,0c-2.6-0.4-3.7-1.9-3.7-4.5c0-2.3,0-4.6,0-6.9c0-0.7-0.2-1.3-0.8-1.6
	C4.4,235.4,4.4,235.3,4.4,235.3z"/>
<path fill="#FFFFFF" d="M235.6,170c0.1,0.5,0.2,0.9,0.2,1.4c0,0.4-0.2,0.7-0.4,1c-0.5,0.9-0.9,1.7-1.4,2.6c-0.5,0.8-0.9,1.6-1.5,2.4
	c-0.2,0.2-0.7,0.4-1,0.4c-1.8,0-3.2,0.7-4.1,2.3c-1.8,3.1-4.2,5.6-7.5,7c-0.2,0.1-0.5,0.5-0.5,0.8c0,0.8-0.3,1.1-1.1,1.4
	c-1.4,0.5-2.8,1.3-4.2,1.6c-1.3,0.3-1.8,1.1-2.5,2c-0.5,0.7-1.2,1.1-1.9,1.7c0.7,1.8-1.7,1.2-1.9,2.5c0.1,0.2,0.3,0.4,0.4,0.6
	c-1.3,0.3-2.4-0.7-2.2-2.1c0.1-0.6,0.2-1.3,0.5-1.9c0.3-0.8,0.7-1.6,0.4-2.6c-0.1-0.3,0.1-0.9,0.4-1.2c1.6-1.9,2.3-4.2,2.7-6.6
	c0.1-0.3,0.3-0.6,0.4-0.9c0.2-0.5,0.5-1.1,0.6-1.6c0.1-0.9,0.1-1.9,0.2-2.8c0-0.3,0.1-0.5,0.2-0.7c0.3-0.6,0.8-1.2,0.3-1.9
	c-0.5-0.8-1.1-1.7-1.8-2.3c-1.1-1-2.4-2-3.8-3.1C216,170,225.8,170,235.6,170z"/>
<path fill="#FFFFFF" d="M247.5,177.5c-6.3,16.3-23.4,31.9-46.1,32.9c-26.1,1.1-43.7-14.4-51.1-33.2c10.4,19.1,26.7,29.3,48.6,29.4
	C220.8,206.5,237.2,196.3,247.5,177.5z"/>
<path fill="#FFFFFF" d="M226.8,157.1c1.8,2.6,3.5,5,5.3,7.7c-2.9,0-5.7,0-8.8,0c1.9-1.3,0.8-2.2,0.1-3.3c-0.5-0.7-1.1-1.4-1.5-2.3
	c-0.7-1.6-1.9-1.6-3.5-1.3c0,1.7-0.1,3.5,0,5.2c0,0.6,0.6,1.1,1,1.7c-2.7,0-5.2,0-8.1,0c1.8-1.3,1.3-3,1.3-4.6c0-3.6,0-7.2,0-10.8
	c0-1.4,0.4-3-1.3-4.1c0.4-0.1,0.5-0.1,0.7-0.1c4.3,0,8.6,0,12.9,0.1c0.6,0,1.2,0.1,1.8,0.3c2.4,0.6,4,2,4.4,4.5
	c0.4,2.5-0.5,4.6-2.5,6.1C228,156.4,227.4,156.7,226.8,157.1z M218.3,154c1.6,0,3,0.1,4.4,0c0.6,0,1.2-0.4,1.7-0.8
	c0.8-0.6,0.9-1.5,0.7-2.4c-0.2-0.8-0.9-1.4-1.7-1.4c-1.7-0.1-3.4,0-5.1,0C218.3,150.9,218.3,152.4,218.3,154z"/>
<path fill="#FFFFFF" d="M120.3,153.5c0,3.2,0,6.3,0,9.5c0,0.6,0.6,1.1,1,1.7c-2.2,0-4.4,0-6.9,0c1.8-1.3,1.2-3.1,1.3-4.6
	c0-3.8,0-7.6,0-11.5c0-1.2,0.1-2.5-1.1-3.3c0-0.1,0.1-0.2,0.1-0.2c0.8,0,1.6,0.1,2.3,0c2.7-0.4,4.6,0.6,6.2,2.8c2,2.6,4.3,5,6.5,7.5
	c0.3,0.3,0.6,0.6,1,1c0-0.4,0.1-0.7,0.1-1c0-2.3,0-4.7,0-7c0-1.2,0-2.3-1-3.2c2.2,0,4.3,0,6.7,0c-1.7,1.3-1.1,3-1.2,4.6
	c0,4.6,0,9.1,0,13.7c0,0.4,0,0.8,0,1.3c-1.5,0-2.9,0-4.2,0c-0.3,0-0.6-0.4-0.8-0.6c-3.2-3.4-6.4-6.9-9.5-10.4
	c-0.1-0.1-0.2-0.3-0.3-0.4C120.5,153.5,120.4,153.5,120.3,153.5z"/>
<path fill="#FFFFFF" d="M85.9,145.2c2.6,0,5.2,0,8.1,0c-1.7,1.2-1.3,2.7-1.3,4.1c0,2.5,0.1,4.9,0,7.4c-0.2,3.9,2.3,4.5,4.8,4.3
	c2.2-0.2,3.2-1.4,3.2-3.6c0-3.4,0.1-6.7,0-10.1c0-0.7-0.5-1.4-0.8-2.1c2.5,0,5.1,0,8,0c-1.7,1.2-1.3,2.8-1.3,4.3c0,2.8,0,5.6,0,8.5
	c-0.1,4.2-1.8,6.2-5.9,7c-3,0.6-6,0.5-8.9-0.3c-3.1-0.8-4.7-3-4.8-6.2c0-3.2,0-6.4,0-9.6C86.9,147.6,87.1,146.2,85.9,145.2z"/>
<path fill="#FFFFFF" d="M256,144.5c0,2.3,0,4.3,0,6.3c-1.9-0.6-3.8-1.2-5.8-1.6c-1.2-0.3-2.5-0.2-3.7-0.1c-0.4,0-1.2,0.6-1.2,1
	c0,0.5,0.5,1.2,0.9,1.4c1.3,0.6,2.6,0.9,3.9,1.4c1.4,0.5,2.9,1.1,4.2,1.8c1.9,1,2.9,2.7,2.7,4.9c-0.2,2.3-1.3,4-3.5,5
	c-2.4,1-4.9,1.1-7.4,0.7c-1.4-0.2-2.9-0.6-4.2-1c-0.8-0.3-1.4-0.2-1.9,0.5c-0.2,0.2-0.4,0.4-0.7,0.7c0-2.4,0-4.7,0-6.8
	c1.9,0.7,3.9,1.6,5.9,2.1c1.3,0.3,2.6,0.3,3.9,0.3c0.8,0,1.5-0.4,1.6-1.3c0.1-0.9-0.5-1.3-1.2-1.6c-0.9-0.3-1.9-0.6-2.9-0.9
	c-1.4-0.5-2.8-0.9-4.1-1.6c-2.6-1.3-3.8-3.4-3.5-5.9c0.3-2.4,2-4,4.9-4.7c3.1-0.7,6.2-0.5,9.2,0.5c0.9,0.3,1.6,0.4,2.2-0.5
	C255.5,144.9,255.7,144.8,256,144.5z"/>
<path fill="#FFFFFF" d="M200.1,151.9c0,2.1,0,4,0,6.1c-2.4-2-5.1-0.6-7.7-1.2c0,1.4,0,2.5,0,3.9c0.3,0,0.7,0,1,0c2.3,0,4.7,0,7,0
	c1.2,0,2.4,0.1,3.3-1.3c0,2,0,3.6,0,5.4c-6.1,0-12.2,0-18.5,0c1.7-1.3,1.3-2.9,1.3-4.5c0-3.7,0-7.5,0-11.2c0-1.4,0.3-2.8-1.3-3.9
	c6.4,0,12.4,0,18.5,0c0,1.7,0,3.3,0,5.3c-1.1-1.6-2.6-1.2-3.9-1.2c-2.5,0-4.9,0-7.4,0c0,1.3,0,2.4,0,3.7c2,0,4.1,0.1,6.1,0
	C199,152.9,199.4,152.3,200.1,151.9z"/>
<path fill="#FFFFFF" d="M270,145.1c2.4,0,4.5,0,6.5,0c0.2,0,0.5,0.5,0.7,0.8c2.8,5.7,5.6,11.4,8.4,17.2c0.3,0.5,0.5,1,0.8,1.6
	c-2.7,0-5.4,0-8.2,0c0.2-0.3,0.3-0.5,0.5-0.7c0.5-0.5,0.5-1,0.3-1.6c-0.4-0.9-0.9-1.2-1.9-1.2c-2.4,0.1-4.8,0.1-7.2,0
	c-0.7,0-1.1,0.2-1.3,0.8c-0.3,0.7-0.8,1.3,0,2c0.2,0.2,0.3,0.4,0.5,0.7c-2.4,0-4.7,0-7.1,0c0.3-0.7,0.6-1.3,0.9-1.9
	c2.3-4.7,4.6-9.5,6.9-14.3C270.4,147.6,271.4,146.5,270,145.1z M273.7,150.7c-1.1,2.4-2.1,4.6-3.2,7c2.2,0,4.2,0,6.4,0
	C275.9,155.3,274.8,153.1,273.7,150.7z"/>
<path fill="#FFFFFF" d="M157.8,145.2c2.7,0,5.3,0,7.9,0c0,0.1,0,0.2,0,0.2c-1.1,0.8-0.8,1.7-0.3,2.8c1.3,2.7,2.4,5.4,3.6,8.1
	c0.1,0.3,0.3,0.6,0.5,1c0.6-1.3,1.1-2.4,1.6-3.5c0.9-1.9,1.7-3.8,2.6-5.6c0.7-1.5,0.7-1.5-0.4-3c2.3,0,4.5,0,6.8,0
	c-0.2,0.3-0.3,0.6-0.4,0.9c-2.8,6-5.6,11.9-8.4,17.9c-0.3,0.6-0.6,0.8-1.2,0.8c-1.1-0.1-2.4,0.3-3.1-0.2c-0.8-0.5-1-1.8-1.5-2.7
	c-2.5-5.2-4.9-10.5-7.3-15.7C158.1,145.9,158,145.6,157.8,145.2z"/>
<path fill="#FFFFFF" d="M291.8,164.8c1.6-1,1.3-2.4,1.3-3.7c0-4.1,0-8.2,0-12.3c0-1.2,0.3-2.5-1.2-3.3c0.1-0.1,0.1-0.1,0.2-0.2
	c2.6,0,5.2,0,8,0c-1.7,1.2-1.2,2.8-1.2,4.3c0,3.3,0,6.7,0,10c0,0.3,0,0.7,0,1.2c1.3,0,2.5,0,3.8,0c1,0,2.1,0,3.1,0
	c1.4,0,2.9,0.3,4-1.3c0,2,0,3.6,0,5.4C303.9,164.8,298,164.8,291.8,164.8z"/>
<path fill="#FFFFFF" d="M206.5,235.3c-0.1,0.9-0.4,1.8-0.4,2.6c0,2.7,0,5.3,0,8c0,0.9,0.2,1.7,0.3,2.6c-1.4,0-3.1,0-4.5,0
	c0.1-0.9,0.3-1.7,0.4-2.5c0.1-1.4,0-2.8,0-4.6c-0.3,0.4-0.4,0.7-0.5,0.9c-0.9,1.8-1.8,3.7-2.6,5.5c-0.2,0.5-0.5,0.8-1.1,0.7
	c-0.6,0-1.2,0.1-1.5-0.7c-0.9-1.9-2-3.7-2.9-5.6c-0.1-0.3-0.3-0.5-0.5-0.9c-0.4,2.5-0.2,6,0.5,7.1c-1.4,0-2.8,0-4.3,0
	c1-0.9,0.7-2.1,0.7-3.2c0-2.4,0-4.7,0-7.1c0-1.6,0-1.6-0.7-2.9c1.4,0,2.8,0,4.2,0c0.2,0,0.5,0.4,0.7,0.7c1.3,2.4,2.6,4.8,3.9,7.3
	c0.2-0.4,0.4-0.6,0.5-0.9c1-2.1,2.1-4.2,3.1-6.4c0.3-0.6,0.6-0.8,1.2-0.8C204.3,235.3,205.5,235.3,206.5,235.3z"/>
<path fill="#FFFFFF" d="M345,249.1c-1.3-0.4-2.8-0.6-4-1.2c-2.8-1.3-4-4.2-3.4-7.6c0.5-2.7,2.8-4.9,5.8-5.1c1.4-0.1,2.9-0.1,4.2,0.2
	c3.4,0.8,5.2,3.3,5.1,6.9c-0.1,3.3-2.1,5.7-5.4,6.4c-0.8,0.2-1.5,0.2-2.3,0.3C345.1,249,345,249,345,249.1z M345.2,246
	c0.1,0,0.1,0,0.2,0c1.9-0.1,2.9-1.2,3.2-3.6c0.2-2.4-0.7-4.1-2.4-4.5c-2.4-0.5-4.1,0.5-4.4,2.9c-0.1,0.8-0.1,1.6,0.1,2.3
	C342.2,245.2,343.3,246,345.2,246z"/>
<path fill="#FFFFFF" d="M113.2,248.5c-2,0-3.8,0-5.8,0c1-0.8,0.5-1.4,0-2c-0.4-0.5-0.8-1-1.1-1.6c-0.5-1-1.3-1.3-2.4-0.9
	c0.2,1.5-0.5,3.1,0.7,4.6c-1.8,0-3.4,0-4.9,0c0.1-1,0.3-1.9,0.3-2.8c0-2.7,0-5.3,0-8c0-0.8-0.2-1.5-0.4-2.3c-0.1,0-0.2,0-0.2,0
	c0,0,0.1-0.1,0.1-0.1c3.1,0,6.3-0.1,9.4,0.1c2.3,0.2,3.3,1.3,3.7,3.2c0.3,1.8-0.6,3.3-2.4,4.4c-0.1,0.1-0.3,0.2-0.5,0.3
	C110.9,245,112,246.7,113.2,248.5z M104,241.4c1.3-0.1,2.5-0.1,3.6-0.4c0.7-0.1,1.2-0.8,1-1.6c-0.1-0.5-0.6-1.2-1-1.2
	c-1.2-0.2-2.4-0.1-3.6-0.1C104,239.2,104,240.2,104,241.4z"/>
<path fill="#FFFFFF" d="M317.8,248.4c0.1-0.9,0.3-1.8,0.3-2.7c0-2.7,0-5.4,0-8.1c0-0.8-0.2-1.5-0.4-2.3c-0.1,0-0.2,0-0.2,0
	c0,0,0.1-0.1,0.1-0.1c3.1,0,6.3-0.1,9.4,0.1c2.2,0.2,3.3,1.3,3.6,3.1c0.3,1.9-0.5,3.4-2.4,4.5c-0.1,0.1-0.3,0.2-0.5,0.3
	c1.2,1.7,2.3,3.4,3.5,5.1c-2,0-3.8,0-5.8,0c1-0.8,0.5-1.4,0-2c-0.4-0.5-0.8-1-1.1-1.6c-0.5-1-1.3-1.3-2.4-0.9c0.3,1.5-0.5,3,0.7,4.5
	C320.9,248.4,319.2,248.4,317.8,248.4z M322.1,241.4c1.3-0.1,2.4-0.1,3.5-0.4c0.8-0.2,1.2-0.9,1.1-1.7c-0.1-0.8-0.7-1.2-1.5-1.2
	c-1,0-2.1,0-3.1,0C322.1,239.2,322.1,240.2,322.1,241.4z"/>
<path fill="#FFFFFF" d="M29.8,241.1c0.3,2.4-0.4,4.9,0.5,7.3c-1.3,0-2.7,0-3.9,0c0.1-0.9,0.3-1.8,0.4-2.8c0-2.7,0-5.4,0-8.1
	c0-0.8-0.2-1.5-0.4-2.4c1.1,0,2.4,0,3.7,0c0.2,0,0.5,0.4,0.7,0.6c2,2.3,4,4.5,6.1,6.7c-0.1-2.4,0.5-4.9-0.3-7.3c1.2,0,2.6,0,4.2,0
	c-1.1,1.2-0.7,2.5-0.7,3.8c-0.1,3.1,0,6.1,0,9.3c-1.6,0.1-3,0.4-4.2-1.2c-1.6-2-3.5-3.8-5.2-5.7c-0.2-0.2-0.3-0.4-0.4-0.6
	C30,241,29.9,241.1,29.8,241.1z"/>
<path fill="#FFFFFF" d="M144.3,164.8c1.6-1,1.3-2.4,1.3-3.7c0-4,0-7.9,0-11.9c0-1.4,0.4-2.9-1-4c2.6,0,5.2,0,8.2,0
	c-1.6,1.2-1.3,2.7-1.3,4.1c0,3.8,0,7.6,0,11.5c0,1.4-0.3,2.9,1.3,4C149.9,164.8,147.3,164.8,144.3,164.8z"/>
<path fill="#FFFFFF" d="M363.7,235.3c-0.1,1-0.3,2-0.3,2.9c-0.1,1.8,0,3.6,0,5.3c0,1.7,0.9,2.4,2.7,2.4c1.8,0,2.6-0.8,2.7-2.5
	c0-2.2,0-4.4,0-6.6c0-0.5-0.3-1-0.5-1.5c1.6,0,3.4,0,4.8,0c-0.1,0.9-0.3,1.9-0.3,2.9c-0.1,2.2,0,4.4-0.2,6.6c-0.1,2-1.3,3.1-3.2,3.6
	c-2.2,0.6-4.5,0.6-6.7,0c-2.1-0.6-3.2-2-3.3-4.5c0-2.1,0-4.2,0-6.3c0-0.8-0.2-1.5-0.4-2.4c0.7,0,1.5,0,2.4,0
	C362.2,235.3,363.1,235.3,363.7,235.3z"/>
<path fill="#FFFFFF" d="M214,235.3c1.5,0,3.2,0,4.7,0c-0.1,0.9-0.3,1.9-0.3,2.8c-0.1,1.8,0,3.6,0,5.4c0,1.5,0.9,2.3,2.5,2.4
	c1.8,0.1,2.8-0.6,2.9-2.1c0.1-2.4,0.1-4.8,0-7.2c0-0.4-0.4-0.8-0.6-1.3c1.7,0,3.4,0,5.3,0c-1.1,1.1-0.7,2.4-0.7,3.7
	c-0.1,1.7,0,3.4,0,5.1c0,2.5-1.2,3.9-3.6,4.5c-2.1,0.5-4.2,0.5-6.4-0.1c-2-0.5-3.1-1.7-3.2-3.8c-0.1-2.4-0.1-4.7-0.1-7.1
	C214.3,236.9,214.1,236.1,214,235.3z"/>
<path fill="#FFFFFF" d="M246.2,235.1c0,1.3,0,2.7,0,3.9c-1.6-0.4-3.2-0.8-4.8-1.2c-0.5-0.1-1-0.1-1.5,0.1c-0.3,0.1-0.8,0.4-0.8,0.6
	c0,0.3,0.3,0.8,0.6,0.9c0.5,0.3,1,0.4,1.5,0.6c1.1,0.4,2.3,0.7,3.4,1.2c1.8,0.9,2.6,2.2,2.3,4c-0.2,1.7-1.4,2.9-3.2,3.3
	c-2.1,0.5-4.1,0.3-6.1-0.3c-0.9-0.3-1.8-0.8-2.6,0.4c0-1.5,0-2.9,0-4.5c0.3,0.1,0.5,0.2,0.8,0.4c1.8,0.9,3.6,1.5,5.6,1.4
	c0.5,0,1.2-0.4,1.3-0.8c0.3-0.7-0.4-1-1-1.2c-1.5-0.5-3-1-4.5-1.6c-1.3-0.6-2.2-1.6-2.3-3.1c-0.1-1.8,0.7-3.1,2.4-3.7
	c2.1-0.8,4.3-0.7,6.5-0.1C244.6,235.6,245.5,236.3,246.2,235.1z"/>
<path fill="#FFFFFF" d="M131.4,234.8c0,1.7,0,3,0,4.3c-1.6-0.4-3.2-0.8-4.9-1.2c-0.5-0.1-1.1,0-1.6,0.1c-0.3,0.1-0.6,0.4-0.7,0.6
	c0,0.3,0.2,0.7,0.4,0.9c0.7,0.4,1.6,0.6,2.3,0.9c1.2,0.5,2.4,0.8,3.4,1.5c2.5,1.6,2.1,5.2-0.6,6.5c-2,0.9-4.1,0.7-6.2,0.3
	c-0.4-0.1-0.9-0.2-1.3-0.3c-1.2-0.3-1.2-0.3-2.1,0.6c0-1.6,0-3,0-4.4c1.5,0.5,3,1,4.5,1.4c0.7,0.2,1.4,0.2,2.1,0.1
	c0.4-0.1,0.9-0.5,1-0.9c0.1-0.2-0.4-0.8-0.7-1c-0.8-0.4-1.7-0.5-2.5-0.8c-0.8-0.3-1.7-0.6-2.5-1c-1.5-0.8-2.2-2.1-2.1-3.7
	c0.1-1.7,1.3-2.6,2.8-3.1c2-0.6,4-0.6,6,0C129.7,235.6,130.6,236.2,131.4,234.8z"/>
<path fill="#FFFFFF" d="M307.1,245.7c-0.2-1.3-0.3-2.5-0.5-3.7c1.2,0,2.7,0,4.3,0c0,1.7,0,3.3,0,5c0,0.2-0.3,0.5-0.5,0.6
	c-2.8,1.2-5.6,1.7-8.6,0.8c-3.2-1-4.9-3.5-4.7-6.9c0.2-3.1,2.3-5.4,5.5-6.1c1.9-0.4,3.7-0.4,5.6,0.2c0.8,0.2,1.4,0.4,2.1-0.7
	c0,1.7,0,3.1,0,4.5c-0.7-0.3-1.4-0.7-2.1-0.9c-1-0.2-2-0.5-3-0.5c-2.3,0-3.7,1.5-3.8,3.9c0,2.5,1.3,4,3.7,4.1
	C305.5,246,306.2,245.8,307.1,245.7z"/>
<path fill="#FFFFFF" d="M80.2,248.5c0.1-0.8,0.3-1.6,0.4-2.3c0-2.7,0-5.4,0-8.2c0-0.9-0.2-1.8-0.3-2.7c3.8,0,7.8,0,12,0
	c0,1.1,0,2.2,0,3.1c-0.9-0.1-1.7-0.3-2.6-0.3c-1.6-0.1-3.3,0-5,0c0,0.8,0,1.6,0,2.5c1.7-0.2,3.4,0.5,5.1-0.6c0,1.3,0,2.6,0,4
	c-1.6-1.2-3.3-0.4-5.1-0.7c0,0.9,0,1.7,0,2.6c2.5-0.3,5.1,0.4,7.6-0.5c0,0.9,0,2,0,3.1C88.1,248.5,84,248.5,80.2,248.5z"/>
<path fill="#FFFFFF" d="M380.6,248.5c0.1-0.9,0.3-1.7,0.3-2.6c0-2.7,0-5.4,0-8.1c0-0.8-0.2-1.6-0.4-2.6c0.4,0,1.1,0,1.7,0
	c2.3,0.1,4.6,0.1,6.9,0.2c0.3,0,0.6,0.1,0.9,0.2c2.5,0.7,3.3,1.9,3.3,4.8c0,1.9-1.3,3.5-3.4,3.9c-1.6,0.3-3.3,0.4-5.1,0.5
	c0.1,1.1-0.5,2.4,0.8,3.6C383.7,248.5,382,248.5,380.6,248.5z M384.9,242.1c1.1-0.1,2.2-0.1,3.3-0.3c1-0.2,1.3-1,1.3-1.9
	c0-0.8-0.3-1.6-1.2-1.7c-1.1-0.2-2.3-0.2-3.4-0.2C384.9,239.5,384.9,240.7,384.9,242.1z"/>
<path fill="#FFFFFF" d="M153.9,248.5c-0.3,0-0.5,0.1-0.8,0.1c-1.5,0-3,0-4.3,0c0.1-0.6,0.2-1.1,0.2-1.5c-0.1-0.7-0.5-0.9-1.3-0.9
	c-1.4,0.1-2.8,0-4.2,0c-0.5,0-1.1,0.1-1.4,0.5c-0.6,0.5-0.4,1.2,0.3,1.8c-1.7,0-3.2,0-4.8,0c0.2-0.4,0.3-0.8,0.5-1.1
	c1.6-3.3,3.2-6.5,4.7-9.8c0.3-0.7,0.4-1.4,0.6-2.3c1,0,2.3,0,3.6,0c0.2,0,0.5,0.2,0.6,0.4c2.1,4.1,4.1,8.3,6.1,12.4
	C153.8,248.2,153.8,248.3,153.9,248.5z M143.3,243.7c1.5,0,2.8,0,4.3,0c-0.7-1.6-1.4-3-2.2-4.7C144.6,240.7,144,242.2,143.3,243.7z"
	/>
<path fill="#FFFFFF" d="M279,235.1c0,1.3,0,2.6,0,3.8c-1.6-0.3-3.1-0.8-4.7-0.9c-2.5-0.2-4,1.3-4,3.9c0,2.4,1.6,4.1,4,4
	c0.8,0,1.6-0.1,2.4-0.4c0.8-0.2,1.5-0.6,2.3-0.9c0,0.9,0,1.8,0,2.6c0,0.2-0.2,0.5-0.4,0.6c-2.9,1.2-5.8,1.5-8.8,0.2
	c-2.7-1.2-4-3.8-3.6-7.1c0.3-2.8,2.4-5,5.4-5.6c1.8-0.4,3.6-0.3,5.4,0.1C277.7,235.6,278.4,235.9,279,235.1z"/>
<path fill="#FFFFFF" d="M64.7,235.3c-1,0.7-0.7,1.4-0.3,2.1c0.9,2,1.8,3.9,2.7,6.1c1.1-2.4,2.2-4.6,3.1-6.9c0.1-0.3-0.2-0.8-0.3-1.3
	c1.4,0,2.8,0,4.4,0c-0.2,0.4-0.3,0.7-0.4,1c-1.8,3.8-3.6,7.5-5.3,11.3c-0.3,0.7-0.7,1-1.5,0.9c-0.4-0.1-0.9,0-1.3,0
	c-0.3-0.1-0.6-0.2-0.7-0.5c-2-4.1-3.9-8.3-5.8-12.5c0-0.1,0-0.1,0-0.3C61,235.3,62.8,235.3,64.7,235.3z"/>
<path fill="#FFFFFF" d="M164.4,245.8c2.5-0.3,4.9,0.4,7.3-0.5c0,0.9,0,2,0,3.1c-4,0-7.9,0-11.5,0c0.1-1,0.3-2,0.3-2.9
	c0-2.7,0-5.4,0-8.1c0-0.7-0.2-1.4-0.4-2.1c1.5,0,3.2,0,4.7,0c-0.1,0.9-0.3,1.8-0.3,2.6C164.4,240.5,164.4,243.1,164.4,245.8z"/>
<path fill="#FFFFFF" d="M254.5,235.3c1.5,0,3.2,0,4.7,0c-0.1,0.9-0.3,1.8-0.3,2.8c0,2.7,0,5.4,0,8.1c0,0.8,0.2,1.5,0.4,2.3
	c-1.5,0-3.2,0-4.7,0c0.1-0.9,0.3-1.8,0.3-2.7c0-2.6,0-5.2,0-7.9C254.8,237.1,254.6,236.2,254.5,235.3z"/>
<path fill="#FFFFFF" d="M48.5,235.3c1.5,0,3.3,0,5.2,0c-1,0.9-0.8,1.9-0.8,2.9c0,2.7,0,5.3,0,8c0,0.7,0.2,1.4,0.4,2.2
	c-1.5,0-3.2,0-4.7,0c0.1-0.9,0.3-1.9,0.3-2.9c0-2.7,0-5.3,0-8C48.9,236.9,48.6,236.1,48.5,235.3z"/>
</svg>
